…
This then just needs to be mapped back on to our `postcodes` data of
number allocated to each rehab centre from each
postcode.

``` r
basicDemographicsRehab <- rename (basicDemographicsRehab, POSTCODE = Postcode)
postcodes <- left_join (postcodes, basicDemographicsRehab, by = "POSTCODE") %>%
    select (POSTCODE, DestNumber, Destination, stroke_rate)
postcodes
#> # A tibble: 88 x 4
#> # Groups:   POSTCODE, DestNumber [88]
#>    POSTCODE DestNumber Destination       stroke_rate
#>       <dbl>      <dbl> <chr>                   <dbl>
#>  1     3144          3 KingstonHospital        0.443
#>  2     3144          4 Disconnected            0.443
#>  3     3145          3 KingstonHospital        0.662
#>  4     3146          3 KingstonHospital        0.713
#>  5     3146          4 Disconnected            0.713
#>  6     3147          3 KingstonHospital        0.482
#>  7     3147          4 Disconnected            0.482
#>  8     3148          3 KingstonHospital        0.220
#>  9     3149          1 DandenongHospital       1.31 
#> 10     3149          3 KingstonHospital        1.31 
#> # … with 78 more rows
```
…
